%YAML 1.1
%TAG !u! tag:unity3d.com,2011:
--- !u!1 &6885354483122937394
GameObject:
  m_ObjectHideFlags: 0
  m_CorrespondingSourceObject: {fileID: 0}
  m_PrefabInstance: {fileID: 0}
  m_PrefabAsset: {fileID: 0}
  serializedVersion: 6
  m_Component:
  - component: {fileID: 1421160250886955771}
  - component: {fileID: 4733682495000982316}
  - component: {fileID: 915798038133978803}
  - component: {fileID: 5241000833459367922}
  m_Layer: 0
  m_Name: MenuInputManager
  m_TagString: Untagged
  m_Icon: {fileID: 0}
  m_NavMeshLayer: 0
  m_StaticEditorFlags: 0
  m_IsActive: 1
--- !u!4 &1421160250886955771
Transform:
  m_ObjectHideFlags: 0
  m_CorrespondingSourceObject: {fileID: 0}
  m_PrefabInstance: {fileID: 0}
  m_PrefabAsset: {fileID: 0}
  m_GameObject: {fileID: 6885354483122937394}
  m_LocalRotation: {x: 0, y: 0, z: 0, w: 1}
  m_LocalPosition: {x: 0, y: 0, z: 0}
  m_LocalScale: {x: 1, y: 1, z: 1}
  m_Children: []
  m_Father: {fileID: 0}
  m_RootOrder: 0
  m_LocalEulerAnglesHint: {x: 0, y: 0, z: 0}
--- !u!114 &4733682495000982316
MonoBehaviour:
  m_ObjectHideFlags: 0
  m_CorrespondingSourceObject: {fileID: 0}
  m_PrefabInstance: {fileID: 0}
  m_PrefabAsset: {fileID: 0}
  m_GameObject: {fileID: 6885354483122937394}
  m_Enabled: 1
  m_EditorHideFlags: 0
  m_Script: {fileID: 11500000, guid: 581b3e3c96df0ef42aef16b63b27b87f, type: 3}
  m_Name: 
  m_EditorClassIdentifier: 
  _dontDestroyOnLoad: 0
  _userData:
    configVars:
      updateLoop: 5
      alwaysUseUnityInput: 0
      windowsStandalonePrimaryInputSource: 0
      osx_primaryInputSource: 0
      linux_primaryInputSource: 0
      windowsUWP_primaryInputSource: 0
      xboxOne_primaryInputSource: 0
      ps4_primaryInputSource: 0
      useXInput: 1
      useNativeMouse: 1
      useEnhancedDeviceSupport: 1
      windowsStandalone_useSteamRawInputControllerWorkaround: 0
      osxStandalone_useEnhancedDeviceSupport: 1
      android_supportUnknownGamepads: 1
      ps4_assignJoysticksByPS4JoyId: 1
      useSteamControllerSupport: 1
      platformVars_allPlatforms:
        disableKeyboard: 0
        ignoreInputWhenAppNotInFocus: 1
      platformVars_windowsStandalone:
        disableKeyboard: 0
        ignoreInputWhenAppNotInFocus: 1
      platformVars_linuxStandalone:
        disableKeyboard: 0
        ignoreInputWhenAppNotInFocus: 1
      platformVars_osxStandalone:
        disableKeyboard: 0
        ignoreInputWhenAppNotInFocus: 1
      platformVars_windows8Store:
        disableKeyboard: 0
        ignoreInputWhenAppNotInFocus: 1
      platformVars_windowsUWP:
        disableKeyboard: 0
        ignoreInputWhenAppNotInFocus: 1
      platformVars_iOS:
        disableKeyboard: 0
        ignoreInputWhenAppNotInFocus: 1
      platformVars_tvOS:
        disableKeyboard: 0
        ignoreInputWhenAppNotInFocus: 1
      platformVars_android:
        disableKeyboard: 0
        ignoreInputWhenAppNotInFocus: 1
      platformVars_ps3:
        disableKeyboard: 0
        ignoreInputWhenAppNotInFocus: 1
      platformVars_ps4:
        disableKeyboard: 0
        ignoreInputWhenAppNotInFocus: 1
      platformVars_psVita:
        disableKeyboard: 0
        ignoreInputWhenAppNotInFocus: 1
      platformVars_xbox360:
        disableKeyboard: 0
        ignoreInputWhenAppNotInFocus: 1
      platformVars_xboxOne:
        disableKeyboard: 0
        ignoreInputWhenAppNotInFocus: 1
      platformVars_wii:
        disableKeyboard: 0
        ignoreInputWhenAppNotInFocus: 1
      platformVars_wiiu:
        disableKeyboard: 0
        ignoreInputWhenAppNotInFocus: 1
      platformVars_webGL:
        disableKeyboard: 0
        ignoreInputWhenAppNotInFocus: 1
      maxJoysticksPerPlayer: 1
      autoAssignJoysticks: 1
      assignJoysticksToPlayingPlayersOnly: 0
      distributeJoysticksEvenly: 1
      reassignJoystickToPreviousOwnerOnReconnect: 1
      defaultJoystickAxis2DDeadZoneType: 1
      force4WayHats: 0
      editorSettings:
        exportConsts_useParentClass: 0
        exportConsts_parentClassName: RewiredConsts
        exportConsts_useNamespace: 1
        exportConsts_namespace: RewiredConsts
        exportConsts_actions: 1
        exportConsts_actionsClassName: Action
        exportConsts_actionsIncludeActionCategory: 0
        exportConsts_mapCategories: 1
        exportConsts_mapCategoriesClassName: Category
        exportConsts_layouts: 1
        exportConsts_layoutsClassName: Layout
        exportConsts_players: 1
        exportConsts_playersClassName: Player
        exportConsts_customControllers: 1
        exportConsts_customControllersClassName: CustomController
        exportConsts_customControllersAxesClassName: Axis
        exportConsts_customControllersButtonsClassName: Button
    players:
    - _id: 9999999
      _name: System
      _descriptiveName: System
      _startPlaying: 1
      _defaultJoystickMaps: []
      _defaultMouseMaps: []
      _defaultKeyboardMaps: []
      _defaultCustomControllerMaps: []
      _startingCustomControllers: []
      _assignMouseOnStart: 1
      _assignKeyboardOnStart: 1
      _excludeFromControllerAutoAssignment: 1
    - _id: 3
      _name: Player1
      _descriptiveName: Player 1
      _startPlaying: 1
      _defaultJoystickMaps: []
      _defaultMouseMaps: []
      _defaultKeyboardMaps: []
      _defaultCustomControllerMaps:
      - _enabled: 1
        _categoryId: 0
        _layoutId: 0
      _startingCustomControllers: []
      _assignMouseOnStart: 0
      _assignKeyboardOnStart: 1
      _excludeFromControllerAutoAssignment: 0
    - _id: 4
      _name: Player2
      _descriptiveName: Player 2
      _startPlaying: 1
      _defaultJoystickMaps: []
      _defaultMouseMaps: []
      _defaultKeyboardMaps: []
      _defaultCustomControllerMaps:
      - _enabled: 1
        _categoryId: 0
        _layoutId: 0
      _startingCustomControllers: []
      _assignMouseOnStart: 0
      _assignKeyboardOnStart: 1
      _excludeFromControllerAutoAssignment: 0
    actions:
    - _id: 36
      _name: Pause
      _type: 1
      _descriptiveName: Pause
      _positiveDescriptiveName: 
      _negativeDescriptiveName: 
      _behaviorId: 0
      _userAssignable: 1
      _categoryId: 1
    - _id: 37
      _name: A
      _type: 1
      _descriptiveName: Action0
      _positiveDescriptiveName: 
      _negativeDescriptiveName: 
      _behaviorId: 0
      _userAssignable: 1
      _categoryId: 2
    - _id: 38
      _name: B
      _type: 1
      _descriptiveName: Action0
      _positiveDescriptiveName: 
      _negativeDescriptiveName: 
      _behaviorId: 0
      _userAssignable: 1
      _categoryId: 2
    - _id: 39
      _name: X
      _type: 1
      _descriptiveName: Action0
      _positiveDescriptiveName: 
      _negativeDescriptiveName: 
      _behaviorId: 0
      _userAssignable: 1
      _categoryId: 2
    - _id: 40
      _name: Y
      _type: 1
      _descriptiveName: Action0
      _positiveDescriptiveName: 
      _negativeDescriptiveName: 
      _behaviorId: 0
      _userAssignable: 1
      _categoryId: 2
    - _id: 41
      _name: RB
      _type: 1
      _descriptiveName: Action0
      _positiveDescriptiveName: 
      _negativeDescriptiveName: 
      _behaviorId: 0
      _userAssignable: 1
      _categoryId: 2
    - _id: 42
      _name: RT Axis
      _type: 0
      _descriptiveName: Action0
      _positiveDescriptiveName: 
      _negativeDescriptiveName: 
      _behaviorId: 0
      _userAssignable: 1
      _categoryId: 2
    - _id: 43
      _name: LB
      _type: 1
      _descriptiveName: Action0
      _positiveDescriptiveName: 
      _negativeDescriptiveName: 
      _behaviorId: 0
      _userAssignable: 1
      _categoryId: 2
    - _id: 44
      _name: LT Axis
      _type: 0
      _descriptiveName: Action0
      _positiveDescriptiveName: 
      _negativeDescriptiveName: 
      _behaviorId: 0
      _userAssignable: 1
      _categoryId: 2
    - _id: 45
      _name: Start
      _type: 1
      _descriptiveName: Action0
      _positiveDescriptiveName: 
      _negativeDescriptiveName: 
      _behaviorId: 0
      _userAssignable: 1
      _categoryId: 2
    - _id: 46
      _name: Back
      _type: 1
      _descriptiveName: Action0
      _positiveDescriptiveName: 
      _negativeDescriptiveName: 
      _behaviorId: 0
      _userAssignable: 1
      _categoryId: 2
    - _id: 47
      _name: Left Stick Click
      _type: 1
      _descriptiveName: Action0
      _positiveDescriptiveName: 
      _negativeDescriptiveName: 
      _behaviorId: 0
      _userAssignable: 1
      _categoryId: 2
    - _id: 48
      _name: Right Stick Click
      _type: 1
      _descriptiveName: Action0
      _positiveDescriptiveName: 
      _negativeDescriptiveName: 
      _behaviorId: 0
      _userAssignable: 1
      _categoryId: 2
    - _id: 49
      _name: LT Button
      _type: 1
      _descriptiveName: Action0
      _positiveDescriptiveName: 
      _negativeDescriptiveName: 
      _behaviorId: 0
      _userAssignable: 1
      _categoryId: 2
    - _id: 50
      _name: RT Button
      _type: 1
      _descriptiveName: Action0
      _positiveDescriptiveName: 
      _negativeDescriptiveName: 
      _behaviorId: 0
      _userAssignable: 1
      _categoryId: 2
    - _id: 51
      _name: Left Stick Horizontal
      _type: 0
      _descriptiveName: Action0
      _positiveDescriptiveName: 
      _negativeDescriptiveName: 
      _behaviorId: 0
      _userAssignable: 1
      _categoryId: 2
    - _id: 52
      _name: Left Stick Vertical
      _type: 1
      _descriptiveName: Action0
      _positiveDescriptiveName: 
      _negativeDescriptiveName: 
      _behaviorId: 0
      _userAssignable: 1
      _categoryId: 2
    - _id: 53
      _name: Right Stick Horizontal
      _type: 1
      _descriptiveName: Action0
      _positiveDescriptiveName: 
      _negativeDescriptiveName: 
      _behaviorId: 0
      _userAssignable: 1
      _categoryId: 2
    - _id: 54
      _name: Right Stick Vertical
      _type: 1
      _descriptiveName: Action0
      _positiveDescriptiveName: 
      _negativeDescriptiveName: 
      _behaviorId: 0
      _userAssignable: 1
      _categoryId: 2
    - _id: 55
      _name: DPad Horiziontal
      _type: 1
      _descriptiveName: Action0
      _positiveDescriptiveName: 
      _negativeDescriptiveName: 
      _behaviorId: 0
      _userAssignable: 1
      _categoryId: 2
    - _id: 56
      _name: DPad Vert
      _type: 1
      _descriptiveName: Action0
      _positiveDescriptiveName: 
      _negativeDescriptiveName: 
      _behaviorId: 0
      _userAssignable: 1
      _categoryId: 2
    - _id: 60
      _name: Select
      _type: 1
      _descriptiveName: Action0
      _positiveDescriptiveName: 
      _negativeDescriptiveName: 
      _behaviorId: 0
      _userAssignable: 1
      _categoryId: 1
    - _id: 61
      _name: GoBack
      _type: 1
      _descriptiveName: Action0
      _positiveDescriptiveName: 
      _negativeDescriptiveName: 
      _behaviorId: 0
      _userAssignable: 1
      _categoryId: 1
    - _id: 62
      _name: Up
      _type: 1
      _descriptiveName: Action0
      _positiveDescriptiveName: 
      _negativeDescriptiveName: 
      _behaviorId: 0
      _userAssignable: 1
      _categoryId: 1
    - _id: 63
      _name: Down
      _type: 1
      _descriptiveName: Action0
      _positiveDescriptiveName: 
      _negativeDescriptiveName: 
      _behaviorId: 0
      _userAssignable: 1
      _categoryId: 1
    - _id: 64
      _name: Left
      _type: 1
      _descriptiveName: Action0
      _positiveDescriptiveName: 
      _negativeDescriptiveName: 
      _behaviorId: 0
      _userAssignable: 1
      _categoryId: 1
    - _id: 65
      _name: Right
      _type: 1
      _descriptiveName: Action0
      _positiveDescriptiveName: 
      _negativeDescriptiveName: 
      _behaviorId: 0
      _userAssignable: 1
      _categoryId: 1
    actionCategories:
    - _name: Default
      _descriptiveName: Default
      _tag: 
      _id: 0
      _userAssignable: 1
    - _name: NotAnimatorAction
      _descriptiveName: Not Animator Action
      _tag: This action doesn't need to be added to the AnimationControllers
      _id: 1
      _userAssignable: 1
    - _name: Xbox Ref Category
      _descriptiveName: Xbox Controller Reference Category
      _tag: 
      _id: 2
      _userAssignable: 1
    actionCategoryMap:
      list:
      - categoryId: 0
        actionIds: 
      - categoryId: 1
        actionIds: 240000003c0000003d0000003e0000003f0000004000000041000000
      - categoryId: 2
        actionIds: 25000000260000002700000028000000290000002a000000320000002b0000002c000000310000002d0000002e0000002f00000030000000330000003400000035000000360000003700000038000000
    inputBehaviors:
    - _id: 0
      _name: Default
      _joystickAxisSensitivity: 1
      _digitalAxisSimulation: 1
      _digitalAxisSnap: 1
      _digitalAxisInstantReverse: 0
      _digitalAxisGravity: 3
      _digitalAxisSensitivity: 3
      _mouseXYAxisMode: 0
      _mouseOtherAxisMode: 0
      _mouseXYAxisSensitivity: 1
      _mouseXYAxisDeltaCalc: 0
      _mouseOtherAxisSensitivity: 1
      _customControllerAxisSensitivity: 1
      _buttonDoublePressSpeed: 0.3
      _buttonShortPressTime: 0.25
      _buttonShortPressExpiresIn: 0
      _buttonLongPressTime: 1
      _buttonLongPressExpiresIn: 0
      _buttonDeadZone: 0.5
      _buttonDownBuffer: 0
      _buttonRepeatRate: 30
      _buttonRepeatDelay: 0
    mapCategories:
    - _name: Default
      _descriptiveName: Default
      _tag: 
      _id: 0
      _userAssignable: 1
      _checkConflictsWithAllCategories: 1
      _checkConflictsCategoryIds: 
    - _name: Xbox Ref Map
      _descriptiveName: Xbox Controller Refernece Map Category
      _tag: 
      _id: 1
      _userAssignable: 1
      _checkConflictsWithAllCategories: 1
      _checkConflictsCategoryIds: 
    joystickLayouts:
    - _name: Default
      _descriptiveName: Default
      _id: 0
    keyboardLayouts:
    - _name: Default
      _descriptiveName: Default
      _id: 0
    mouseLayouts:
    - _name: Default
      _descriptiveName: Default
      _id: 0
    customControllerLayouts:
    - _name: Default
      _descriptiveName: Default
      _id: 0
    joystickMaps:
    - id: 0
      categoryId: 0
      layoutId: 0
      name: 
      hardwareGuidString: 83b427e4-086f-47f3-bb06-be266abd1ca5
      customControllerUid: 0
      actionElementMaps:
      - _actionCategoryId: 0
        _actionId: 5
        _elementType: 0
        _elementIdentifierId: 0
        _axisRange: 0
        _invert: 0
        _axisContribution: 0
        _keyboardKeyCode: 0
        _modifierKey1: 0
        _modifierKey2: 0
        _modifierKey3: 0
      - _actionCategoryId: 0
        _actionId: 6
        _elementType: 0
        _elementIdentifierId: 1
        _axisRange: 0
        _invert: 0
        _axisContribution: 0
        _keyboardKeyCode: 0
        _modifierKey1: 0
        _modifierKey2: 0
        _modifierKey3: 0
      - _actionCategoryId: 0
        _actionId: 0
        _elementType: 1
        _elementIdentifierId: 8
        _axisRange: 0
        _invert: 0
        _axisContribution: 0
        _keyboardKeyCode: 0
        _modifierKey1: 0
        _modifierKey2: 0
        _modifierKey3: 0
      - _actionCategoryId: 0
        _actionId: 13
        _elementType: 1
        _elementIdentifierId: 5
        _axisRange: 0
        _invert: 0
        _axisContribution: 0
        _keyboardKeyCode: 0
        _modifierKey1: 0
        _modifierKey2: 0
        _modifierKey3: 0
      - _actionCategoryId: 0
        _actionId: 2
        _elementType: 1
        _elementIdentifierId: 4
        _axisRange: 0
        _invert: 0
        _axisContribution: 0
        _keyboardKeyCode: 0
        _modifierKey1: 0
        _modifierKey2: 0
        _modifierKey3: 0
      - _actionCategoryId: 0
        _actionId: 3
        _elementType: 1
        _elementIdentifierId: 7
        _axisRange: 0
        _invert: 0
        _axisContribution: 0
        _keyboardKeyCode: 0
        _modifierKey1: 0
        _modifierKey2: 0
        _modifierKey3: 0
      - _actionCategoryId: 0
        _actionId: 9
        _elementType: 1
        _elementIdentifierId: 17
        _axisRange: 0
        _invert: 0
        _axisContribution: 0
        _keyboardKeyCode: 0
        _modifierKey1: 0
        _modifierKey2: 0
        _modifierKey3: 0
      - _actionCategoryId: 0
        _actionId: 4
        _elementType: 1
        _elementIdentifierId: 18
        _axisRange: 0
        _invert: 0
        _axisContribution: 0
        _keyboardKeyCode: 0
        _modifierKey1: 0
        _modifierKey2: 0
        _modifierKey3: 0
      - _actionCategoryId: 0
        _actionId: 1
        _elementType: 1
        _elementIdentifierId: 11
        _axisRange: 0
        _invert: 0
        _axisContribution: 0
        _keyboardKeyCode: 0
        _modifierKey1: 0
        _modifierKey2: 0
        _modifierKey3: 0
      - _actionCategoryId: 0
        _actionId: 8
        _elementType: 1
        _elementIdentifierId: 10
        _axisRange: 0
        _invert: 0
        _axisContribution: 0
        _keyboardKeyCode: 0
        _modifierKey1: 0
        _modifierKey2: 0
        _modifierKey3: 0
      - _actionCategoryId: 0
        _actionId: 17
        _elementType: 1
        _elementIdentifierId: 13
        _axisRange: 0
        _invert: 0
        _axisContribution: 0
        _keyboardKeyCode: 0
        _modifierKey1: 0
        _modifierKey2: 0
        _modifierKey3: 0
      - _actionCategoryId: 0
        _actionId: 21
        _elementType: 1
        _elementIdentifierId: 12
        _axisRange: 0
        _invert: 0
        _axisContribution: 0
        _keyboardKeyCode: 0
        _modifierKey1: 0
        _modifierKey2: 0
        _modifierKey3: 0
      - _actionCategoryId: 0
        _actionId: 22
        _elementType: 1
        _elementIdentifierId: 10
        _axisRange: 0
        _invert: 0
        _axisContribution: 0
        _keyboardKeyCode: 0
        _modifierKey1: 0
        _modifierKey2: 0
        _modifierKey3: 0
      - _actionCategoryId: 0
        _actionId: 23
        _elementType: 0
        _elementIdentifierId: 3
        _axisRange: 1
        _invert: 0
        _axisContribution: 0
        _keyboardKeyCode: 0
        _modifierKey1: 0
        _modifierKey2: 0
        _modifierKey3: 0
      - _actionCategoryId: 0
        _actionId: 24
        _elementType: 0
        _elementIdentifierId: 3
        _axisRange: 2
        _invert: 0
        _axisContribution: 1
        _keyboardKeyCode: 0
        _modifierKey1: 0
        _modifierKey2: 0
        _modifierKey3: 0
      - _actionCategoryId: 0
        _actionId: 20
        _elementType: 1
        _elementIdentifierId: 14
        _axisRange: 0
        _invert: 0
        _axisContribution: 0
        _keyboardKeyCode: 0
        _modifierKey1: 0
        _modifierKey2: 0
        _modifierKey3: 0
    - id: 1
      categoryId: 0
      layoutId: 0
      name: 
      hardwareGuidString: 137320b3-9897-4c36-a3d9-761c5c861c0d
      customControllerUid: 0
      actionElementMaps:
      - _actionCategoryId: 0
        _actionId: 5
        _elementType: 0
        _elementIdentifierId: 0
        _axisRange: 0
        _invert: 0
        _axisContribution: 0
        _keyboardKeyCode: 0
        _modifierKey1: 0
        _modifierKey2: 0
        _modifierKey3: 0
      - _actionCategoryId: 0
        _actionId: 6
        _elementType: 0
        _elementIdentifierId: 1
        _axisRange: 0
        _invert: 0
        _axisContribution: 0
        _keyboardKeyCode: 0
        _modifierKey1: 0
        _modifierKey2: 0
        _modifierKey3: 0
      - _actionCategoryId: 0
        _actionId: -1
        _elementType: 0
        _elementIdentifierId: 2
        _axisRange: 0
        _invert: 0
        _axisContribution: 0
        _keyboardKeyCode: 0
        _modifierKey1: 0
        _modifierKey2: 0
        _modifierKey3: 0
      - _actionCategoryId: 0
        _actionId: -1
        _elementType: 0
        _elementIdentifierId: 3
        _axisRange: 0
        _invert: 0
        _axisContribution: 0
        _keyboardKeyCode: 0
        _modifierKey1: 0
        _modifierKey2: 0
        _modifierKey3: 0
      - _actionCategoryId: 0
        _actionId: -1
        _elementType: 0
        _elementIdentifierId: 4
        _axisRange: 0
        _invert: 0
        _axisContribution: 0
        _keyboardKeyCode: 0
        _modifierKey1: 0
        _modifierKey2: 0
        _modifierKey3: 0
      - _actionCategoryId: 0
        _actionId: -1
        _elementType: 0
        _elementIdentifierId: 5
        _axisRange: 0
        _invert: 0
        _axisContribution: 0
        _keyboardKeyCode: 0
        _modifierKey1: 0
        _modifierKey2: 0
        _modifierKey3: 0
      - _actionCategoryId: 0
        _actionId: -1
        _elementType: 1
        _elementIdentifierId: 6
        _axisRange: 0
        _invert: 0
        _axisContribution: 0
        _keyboardKeyCode: 0
        _modifierKey1: 0
        _modifierKey2: 0
        _modifierKey3: 0
      - _actionCategoryId: 0
        _actionId: -1
        _elementType: 1
        _elementIdentifierId: 7
        _axisRange: 0
        _invert: 0
        _axisContribution: 0
        _keyboardKeyCode: 0
        _modifierKey1: 0
        _modifierKey2: 0
        _modifierKey3: 0
      - _actionCategoryId: 0
        _actionId: -1
        _elementType: 1
        _elementIdentifierId: 8
        _axisRange: 0
        _invert: 0
        _axisContribution: 0
        _keyboardKeyCode: 0
        _modifierKey1: 0
        _modifierKey2: 0
        _modifierKey3: 0
      - _actionCategoryId: 0
        _actionId: -1
        _elementType: 1
        _elementIdentifierId: 9
        _axisRange: 0
        _invert: 0
        _axisContribution: 0
        _keyboardKeyCode: 0
        _modifierKey1: 0
        _modifierKey2: 0
        _modifierKey3: 0
      - _actionCategoryId: 0
        _actionId: -1
        _elementType: 1
        _elementIdentifierId: 10
        _axisRange: 0
        _invert: 0
        _axisContribution: 0
        _keyboardKeyCode: 0
        _modifierKey1: 0
        _modifierKey2: 0
        _modifierKey3: 0
      - _actionCategoryId: 0
        _actionId: -1
        _elementType: 1
        _elementIdentifierId: 11
        _axisRange: 0
        _invert: 0
        _axisContribution: 0
        _keyboardKeyCode: 0
        _modifierKey1: 0
        _modifierKey2: 0
        _modifierKey3: 0
      - _actionCategoryId: 0
        _actionId: -1
        _elementType: 1
        _elementIdentifierId: 12
        _axisRange: 0
        _invert: 0
        _axisContribution: 0
        _keyboardKeyCode: 0
        _modifierKey1: 0
        _modifierKey2: 0
        _modifierKey3: 0
      - _actionCategoryId: 0
        _actionId: -1
        _elementType: 1
        _elementIdentifierId: 13
        _axisRange: 0
        _invert: 0
        _axisContribution: 0
        _keyboardKeyCode: 0
        _modifierKey1: 0
        _modifierKey2: 0
        _modifierKey3: 0
      - _actionCategoryId: 0
        _actionId: -1
        _elementType: 1
        _elementIdentifierId: 14
        _axisRange: 0
        _invert: 0
        _axisContribution: 0
        _keyboardKeyCode: 0
        _modifierKey1: 0
        _modifierKey2: 0
        _modifierKey3: 0
      - _actionCategoryId: 0
        _actionId: -1
        _elementType: 1
        _elementIdentifierId: 15
        _axisRange: 0
        _invert: 0
        _axisContribution: 0
        _keyboardKeyCode: 0
        _modifierKey1: 0
        _modifierKey2: 0
        _modifierKey3: 0
      - _actionCategoryId: 0
        _actionId: -1
        _elementType: 1
        _elementIdentifierId: 16
        _axisRange: 0
        _invert: 0
        _axisContribution: 0
        _keyboardKeyCode: 0
        _modifierKey1: 0
        _modifierKey2: 0
        _modifierKey3: 0
      - _actionCategoryId: 0
        _actionId: -1
        _elementType: 1
        _elementIdentifierId: 17
        _axisRange: 0
        _invert: 0
        _axisContribution: 0
        _keyboardKeyCode: 0
        _modifierKey1: 0
        _modifierKey2: 0
        _modifierKey3: 0
      - _actionCategoryId: 0
        _actionId: -1
        _elementType: 1
        _elementIdentifierId: 18
        _axisRange: 0
        _invert: 0
        _axisContribution: 0
        _keyboardKeyCode: 0
        _modifierKey1: 0
        _modifierKey2: 0
        _modifierKey3: 0
      - _actionCategoryId: 0
        _actionId: -1
        _elementType: 1
        _elementIdentifierId: 19
        _axisRange: 0
        _invert: 0
        _axisContribution: 0
        _keyboardKeyCode: 0
        _modifierKey1: 0
        _modifierKey2: 0
        _modifierKey3: 0
      - _actionCategoryId: 0
        _actionId: -1
        _elementType: 1
        _elementIdentifierId: 20
        _axisRange: 0
        _invert: 0
        _axisContribution: 0
        _keyboardKeyCode: 0
        _modifierKey1: 0
        _modifierKey2: 0
        _modifierKey3: 0
    keyboardMaps:
    - id: 0
      categoryId: 0
      layoutId: 0
      name: 
      hardwareGuidString: 
      customControllerUid: 0
      actionElementMaps:
      - _actionCategoryId: 0
        _actionId: 0
        _elementType: 1
        _elementIdentifierId: -1
        _axisRange: 0
        _invert: 0
        _axisContribution: 0
        _keyboardKeyCode: 32
        _modifierKey1: 0
        _modifierKey2: 0
        _modifierKey3: 0
      - _actionCategoryId: 0
        _actionId: 5
        _elementType: 1
        _elementIdentifierId: -1
        _axisRange: 0
        _invert: 0
        _axisContribution: 0
        _keyboardKeyCode: 100
        _modifierKey1: 0
        _modifierKey2: 0
        _modifierKey3: 0
      - _actionCategoryId: 0
        _actionId: 5
        _elementType: 1
        _elementIdentifierId: -1
        _axisRange: 0
        _invert: 0
        _axisContribution: 1
        _keyboardKeyCode: 97
        _modifierKey1: 0
        _modifierKey2: 0
        _modifierKey3: 0
      - _actionCategoryId: 0
        _actionId: 6
        _elementType: 1
        _elementIdentifierId: -1
        _axisRange: 0
        _invert: 0
        _axisContribution: 0
        _keyboardKeyCode: 119
        _modifierKey1: 0
        _modifierKey2: 0
        _modifierKey3: 0
      - _actionCategoryId: 0
        _actionId: 6
        _elementType: 1
        _elementIdentifierId: -1
        _axisRange: 0
        _invert: 0
        _axisContribution: 1
        _keyboardKeyCode: 115
        _modifierKey1: 0
        _modifierKey2: 0
        _modifierKey3: 0
      - _actionCategoryId: 0
        _actionId: 1
        _elementType: 1
        _elementIdentifierId: -1
        _axisRange: 0
        _invert: 0
        _axisContribution: 0
        _keyboardKeyCode: 304
        _modifierKey1: 0
        _modifierKey2: 0
        _modifierKey3: 0
      - _actionCategoryId: 0
        _actionId: 13
        _elementType: 1
        _elementIdentifierId: -1
        _axisRange: 0
        _invert: 0
        _axisContribution: 0
        _keyboardKeyCode: 263
        _modifierKey1: 0
        _modifierKey2: 0
        _modifierKey3: 0
      - _actionCategoryId: 0
        _actionId: 2
        _elementType: 1
        _elementIdentifierId: -1
        _axisRange: 0
        _invert: 0
        _axisContribution: 0
        _keyboardKeyCode: 264
        _modifierKey1: 0
        _modifierKey2: 0
        _modifierKey3: 0
      - _actionCategoryId: 0
        _actionId: 3
        _elementType: 1
        _elementIdentifierId: -1
        _axisRange: 0
        _invert: 0
        _axisContribution: 0
        _keyboardKeyCode: 265
        _modifierKey1: 0
        _modifierKey2: 0
        _modifierKey3: 0
      - _actionCategoryId: 0
        _actionId: 8
        _elementType: 1
        _elementIdentifierId: -1
        _axisRange: 0
        _invert: 0
        _axisContribution: 0
        _keyboardKeyCode: 256
        _modifierKey1: 0
        _modifierKey2: 0
        _modifierKey3: 0
    mouseMaps: []
    customControllerMaps:
    - id: 0
      categoryId: 0
      layoutId: 0
      name: 
      hardwareGuidString: 
      customControllerUid: 0
      actionElementMaps:
      - _actionCategoryId: 0
        _actionId: 64
        _elementType: 0
        _elementIdentifierId: 0
        _axisRange: 2
        _invert: 0
        _axisContribution: 0
        _keyboardKeyCode: 0
        _modifierKey1: 0
        _modifierKey2: 0
        _modifierKey3: 0
      - _actionCategoryId: 0
        _actionId: 65
        _elementType: 0
        _elementIdentifierId: 0
        _axisRange: 2
        _invert: 0
        _axisContribution: 0
        _keyboardKeyCode: 0
        _modifierKey1: 0
        _modifierKey2: 0
        _modifierKey3: 0
      - _actionCategoryId: 0
        _actionId: 64
        _elementType: 0
        _elementIdentifierId: 1
        _axisRange: 2
        _invert: 0
        _axisContribution: 0
        _keyboardKeyCode: 0
        _modifierKey1: 0
        _modifierKey2: 0
        _modifierKey3: 0
      - _actionCategoryId: 0
        _actionId: 65
        _elementType: 0
        _elementIdentifierId: 1
        _axisRange: 1
        _invert: 0
        _axisContribution: 0
        _keyboardKeyCode: 0
        _modifierKey1: 0
        _modifierKey2: 0
        _modifierKey3: 0
      - _actionCategoryId: 0
        _actionId: 61
        _elementType: 1
        _elementIdentifierId: 7
        _axisRange: 0
        _invert: 0
        _axisContribution: 0
        _keyboardKeyCode: 0
        _modifierKey1: 0
        _modifierKey2: 0
        _modifierKey3: 0
      - _actionCategoryId: 0
        _actionId: 60
        _elementType: 1
        _elementIdentifierId: 6
        _axisRange: 0
        _invert: 0
        _axisContribution: 0
        _keyboardKeyCode: 0
        _modifierKey1: 0
        _modifierKey2: 0
        _modifierKey3: 0
      - _actionCategoryId: 0
        _actionId: 64
        _elementType: 0
        _elementIdentifierId: 4
        _axisRange: 2
        _invert: 0
        _axisContribution: 0
        _keyboardKeyCode: 0
        _modifierKey1: 0
        _modifierKey2: 0
        _modifierKey3: 0
      - _actionCategoryId: 0
        _actionId: 65
        _elementType: 0
        _elementIdentifierId: 4
        _axisRange: 1
        _invert: 0
        _axisContribution: 0
        _keyboardKeyCode: 0
        _modifierKey1: 0
        _modifierKey2: 0
        _modifierKey3: 0
      - _actionCategoryId: 0
        _actionId: 63
        _elementType: 0
        _elementIdentifierId: 5
        _axisRange: 1
        _invert: 0
        _axisContribution: 1
        _keyboardKeyCode: 0
        _modifierKey1: 0
        _modifierKey2: 0
        _modifierKey3: 0
      - _actionCategoryId: 0
        _actionId: 62
        _elementType: 0
        _elementIdentifierId: 5
        _axisRange: 1
        _invert: 0
        _axisContribution: 0
        _keyboardKeyCode: 0
        _modifierKey1: 0
        _modifierKey2: 0
        _modifierKey3: 0
      - _actionCategoryId: 0
        _actionId: 36
        _elementType: 1
        _elementIdentifierId: 13
        _axisRange: 0
        _invert: 0
        _axisContribution: 0
        _keyboardKeyCode: 0
        _modifierKey1: 0
        _modifierKey2: 0
        _modifierKey3: 0
    - id: 1
      categoryId: 1
      layoutId: 0
      name: 
      hardwareGuidString: 
      customControllerUid: 0
      actionElementMaps:
      - _actionCategoryId: 0
        _actionId: 51
        _elementType: 0
        _elementIdentifierId: 0
        _axisRange: 0
        _invert: 0
        _axisContribution: 0
        _keyboardKeyCode: 0
        _modifierKey1: 0
        _modifierKey2: 0
        _modifierKey3: 0
      - _actionCategoryId: 0
        _actionId: 52
        _elementType: 0
        _elementIdentifierId: 1
        _axisRange: 0
        _invert: 0
        _axisContribution: 0
        _keyboardKeyCode: 0
        _modifierKey1: 0
        _modifierKey2: 0
        _modifierKey3: 0
      - _actionCategoryId: 0
        _actionId: 53
        _elementType: 0
        _elementIdentifierId: 2
        _axisRange: 0
        _invert: 0
        _axisContribution: 0
        _keyboardKeyCode: 0
        _modifierKey1: 0
        _modifierKey2: 0
        _modifierKey3: 0
      - _actionCategoryId: 0
        _actionId: 54
        _elementType: 0
        _elementIdentifierId: 3
        _axisRange: 0
        _invert: 0
        _axisContribution: 0
        _keyboardKeyCode: 0
        _modifierKey1: 0
        _modifierKey2: 0
        _modifierKey3: 0
      - _actionCategoryId: 0
        _actionId: 55
        _elementType: 0
        _elementIdentifierId: 4
        _axisRange: 0
        _invert: 0
        _axisContribution: 0
        _keyboardKeyCode: 0
        _modifierKey1: 0
        _modifierKey2: 0
        _modifierKey3: 0
      - _actionCategoryId: 0
        _actionId: 56
        _elementType: 0
        _elementIdentifierId: 5
        _axisRange: 0
        _invert: 0
        _axisContribution: 0
        _keyboardKeyCode: 0
        _modifierKey1: 0
        _modifierKey2: 0
        _modifierKey3: 0
      - _actionCategoryId: 0
        _actionId: 44
        _elementType: 0
        _elementIdentifierId: 17
        _axisRange: 0
        _invert: 0
        _axisContribution: 0
        _keyboardKeyCode: 0
        _modifierKey1: 0
        _modifierKey2: 0
        _modifierKey3: 0
      - _actionCategoryId: 0
        _actionId: 42
        _elementType: 0
        _elementIdentifierId: 18
        _axisRange: 0
        _invert: 0
        _axisContribution: 0
        _keyboardKeyCode: 0
        _modifierKey1: 0
        _modifierKey2: 0
        _modifierKey3: 0
      - _actionCategoryId: 0
        _actionId: 37
        _elementType: 1
        _elementIdentifierId: 6
        _axisRange: 0
        _invert: 0
        _axisContribution: 0
        _keyboardKeyCode: 0
        _modifierKey1: 0
        _modifierKey2: 0
        _modifierKey3: 0
      - _actionCategoryId: 0
        _actionId: 38
        _elementType: 1
        _elementIdentifierId: 7
        _axisRange: 0
        _invert: 0
        _axisContribution: 0
        _keyboardKeyCode: 0
        _modifierKey1: 0
        _modifierKey2: 0
        _modifierKey3: 0
      - _actionCategoryId: 0
        _actionId: 39
        _elementType: 1
        _elementIdentifierId: 8
        _axisRange: 0
        _invert: 0
        _axisContribution: 0
        _keyboardKeyCode: 0
        _modifierKey1: 0
        _modifierKey2: 0
        _modifierKey3: 0
      - _actionCategoryId: 0
        _actionId: 40
        _elementType: 1
        _elementIdentifierId: 9
        _axisRange: 0
        _invert: 0
        _axisContribution: 0
        _keyboardKeyCode: 0
        _modifierKey1: 0
        _modifierKey2: 0
        _modifierKey3: 0
      - _actionCategoryId: 0
        _actionId: 43
        _elementType: 1
        _elementIdentifierId: 10
        _axisRange: 0
        _invert: 0
        _axisContribution: 0
        _keyboardKeyCode: 0
        _modifierKey1: 0
        _modifierKey2: 0
        _modifierKey3: 0
      - _actionCategoryId: 0
        _actionId: 41
        _elementType: 1
        _elementIdentifierId: 11
        _axisRange: 0
        _invert: 0
        _axisContribution: 0
        _keyboardKeyCode: 0
        _modifierKey1: 0
        _modifierKey2: 0
        _modifierKey3: 0
      - _actionCategoryId: 0
        _actionId: 46
        _elementType: 1
        _elementIdentifierId: 12
        _axisRange: 0
        _invert: 0
        _axisContribution: 0
        _keyboardKeyCode: 0
        _modifierKey1: 0
        _modifierKey2: 0
        _modifierKey3: 0
      - _actionCategoryId: 0
        _actionId: 45
        _elementType: 1
        _elementIdentifierId: 13
        _axisRange: 0
        _invert: 0
        _axisContribution: 0
        _keyboardKeyCode: 0
        _modifierKey1: 0
        _modifierKey2: 0
        _modifierKey3: 0
      - _actionCategoryId: 0
        _actionId: 47
        _elementType: 1
        _elementIdentifierId: 14
        _axisRange: 0
        _invert: 0
        _axisContribution: 0
        _keyboardKeyCode: 0
        _modifierKey1: 0
        _modifierKey2: 0
        _modifierKey3: 0
      - _actionCategoryId: 0
        _actionId: 48
        _elementType: 1
        _elementIdentifierId: 15
        _axisRange: 0
        _invert: 0
        _axisContribution: 0
        _keyboardKeyCode: 0
        _modifierKey1: 0
        _modifierKey2: 0
        _modifierKey3: 0
      - _actionCategoryId: 0
        _actionId: 49
        _elementType: 1
        _elementIdentifierId: 16
        _axisRange: 0
        _invert: 0
        _axisContribution: 0
        _keyboardKeyCode: 0
        _modifierKey1: 0
        _modifierKey2: 0
        _modifierKey3: 0
      - _actionCategoryId: 0
        _actionId: 50
        _elementType: 1
        _elementIdentifierId: 19
        _axisRange: 0
        _invert: 0
        _axisContribution: 0
        _keyboardKeyCode: 0
        _modifierKey1: 0
        _modifierKey2: 0
        _modifierKey3: 0
    customControllers:
    - _name: Dual Analog Gamepad
      _descriptiveName: Based on Dual Analog Gamepads
      _id: 0
      _elementIdentifiers:
      - _id: 0
        _name: Axis0
        _elementType: 0
        _compoundElementType: 0
      - _id: 1
        _name: Axis1
        _elementType: 0
        _compoundElementType: 0
      - _id: 2
        _name: Axis2
        _elementType: 0
        _compoundElementType: 0
      - _id: 3
        _name: Axis3
        _elementType: 0
        _compoundElementType: 0
      - _id: 4
        _name: Axis4
        _elementType: 0
        _compoundElementType: 0
      - _id: 5
        _name: Axis5
        _elementType: 0
        _compoundElementType: 0
      - _id: 6
        _name: Button0
        _elementType: 1
        _compoundElementType: 0
      - _id: 7
        _name: Button1
        _elementType: 1
        _compoundElementType: 0
      - _id: 8
        _name: Button2
        _elementType: 1
        _compoundElementType: 0
      - _id: 9
        _name: Button3
        _elementType: 1
        _compoundElementType: 0
      - _id: 10
        _name: Button4
        _elementType: 1
        _compoundElementType: 0
      - _id: 11
        _name: Button5
        _elementType: 1
        _compoundElementType: 0
      - _id: 12
        _name: Button6
        _elementType: 1
        _compoundElementType: 0
      - _id: 13
        _name: Button7
        _elementType: 1
        _compoundElementType: 0
      - _id: 14
        _name: Button8
        _elementType: 1
        _compoundElementType: 0
      - _id: 15
        _name: Button9
        _elementType: 1
        _compoundElementType: 0
      - _id: 16
        _name: Button10
        _elementType: 1
        _compoundElementType: 0
      - _id: 17
        _name: Axis6
        _elementType: 0
        _compoundElementType: 0
      - _id: 18
        _name: Axis7
        _elementType: 0
        _compoundElementType: 0
      - _id: 19
        _name: Button11
        _elementType: 1
        _compoundElementType: 0
      _axes:
      - elementIdentifierId: 0
        name: Axis0
        range: 0
        invert: 0
        deadZone: 0
        zero: 0
        min: -1
        max: 1
        doNotCalibrateRange: 0
      - elementIdentifierId: 1
        name: Axis1
        range: 0
        invert: 0
        deadZone: 0
        zero: 0
        min: -1
        max: 1
        doNotCalibrateRange: 0
      - elementIdentifierId: 2
        name: Axis2
        range: 0
        invert: 0
        deadZone: 0
        zero: 0
        min: -1
        max: 1
        doNotCalibrateRange: 0
      - elementIdentifierId: 3
        name: Axis3
        range: 0
        invert: 0
        deadZone: 0
        zero: 0
        min: -1
        max: 1
        doNotCalibrateRange: 0
      - elementIdentifierId: 4
        name: Axis4
        range: 0
        invert: 0
        deadZone: 0
        zero: 0
        min: -1
        max: 1
        doNotCalibrateRange: 0
      - elementIdentifierId: 5
        name: Axis5
        range: 0
        invert: 0
        deadZone: 0
        zero: 0
        min: -1
        max: 1
        doNotCalibrateRange: 0
      - elementIdentifierId: 17
        name: Axis6
        range: 0
        invert: 0
        deadZone: 0
        zero: 0
        min: -1
        max: 1
        doNotCalibrateRange: 0
      - elementIdentifierId: 18
        name: Axis7
        range: 0
        invert: 0
        deadZone: 0
        zero: 0
        min: -1
        max: 1
        doNotCalibrateRange: 0
      _buttons:
      - elementIdentifierId: 6
        name: Button0
      - elementIdentifierId: 7
        name: Button1
      - elementIdentifierId: 8
        name: Button2
      - elementIdentifierId: 9
        name: Button3
      - elementIdentifierId: 10
        name: Button4
      - elementIdentifierId: 11
        name: Button5
      - elementIdentifierId: 12
        name: Button6
      - elementIdentifierId: 13
        name: Button7
      - elementIdentifierId: 14
        name: Button8
      - elementIdentifierId: 15
        name: Button9
      - elementIdentifierId: 16
        name: Button10
      - elementIdentifierId: 19
        name: Button11
      _elementIdentifierIdCounter: 21
    playerIdCounter: 5
    actionIdCounter: 66
    actionCategoryIdCounter: 3
    inputBehaviorIdCounter: 1
    mapCategoryIdCounter: 2
    joystickLayoutIdCounter: 1
    keyboardLayoutIdCounter: 1
    mouseLayoutIdCounter: 1
    customControllerLayoutIdCounter: 2
    joystickMapIdCounter: 2
    keyboardMapIdCounter: 1
    mouseMapIdCounter: 0
    customControllerMapIdCounter: 2
    customControllerIdCounter: 1
  _controllerDataFiles: {fileID: 11400000, guid: d21d2b20df8369642b76aafbb2576ba7,
    type: 2}
--- !u!114 &915798038133978803
MonoBehaviour:
  m_ObjectHideFlags: 0
  m_CorrespondingSourceObject: {fileID: 0}
  m_PrefabInstance: {fileID: 0}
  m_PrefabAsset: {fileID: 0}
  m_GameObject: {fileID: 6885354483122937394}
  m_Enabled: 1
  m_EditorHideFlags: 0
  m_Script: {fileID: 11500000, guid: 90e869f57a192514bbeedd1aa8d651cc, type: 3}
  m_Name: 
  m_EditorClassIdentifier: 
  actions: {fileID: 5241000833459367922}
--- !u!114 &5241000833459367922
MonoBehaviour:
  m_ObjectHideFlags: 0
  m_CorrespondingSourceObject: {fileID: 0}
  m_PrefabInstance: {fileID: 0}
  m_PrefabAsset: {fileID: 0}
  m_GameObject: {fileID: 6885354483122937394}
  m_Enabled: 1
  m_EditorHideFlags: 0
  m_Script: {fileID: 11500000, guid: e0b1394e5330d9f4fb43256d6bf74d52, type: 3}
  m_Name: 
  m_EditorClassIdentifier: 
