%YAML 1.1
%TAG !u! tag:unity3d.com,2011:
--- !u!114 &11400000
MonoBehaviour:
  m_ObjectHideFlags: 0
  m_CorrespondingSourceObject: {fileID: 0}
  m_PrefabInstance: {fileID: 0}
  m_PrefabAsset: {fileID: 0}
  m_GameObject: {fileID: 0}
  m_Enabled: 1
  m_EditorHideFlags: 0
  m_Script: {fileID: 11500000, guid: 4f94e1cb030cbff4bb24e032f5bc0057, type: 3}
  m_Name: Ganondorf
  m_EditorClassIdentifier: 
  characterName: Ganondorf
  weight: 113
  runSpeed: 1.218
  walkSpeed: 0.73
  airSpeed: 0.79
  fallSpeed: 1.65
  fastFallSpeed: 2.64
  airAcceleration: 0.03
  gravity: 0.10784
  shortHopAirTime:
    numFrames: 30
  fullHopAirTime:
    numFrames: 44
  softLandingLag:
    numFrames: 2
  hardLandingLag:
    numFrames: 5
  jumpSquat:
    numFrames: 7
  numJumps: 2
  perks:
    wallJump: 0
    wallCling: 0
    crawl: 0
    tether: 0
  chargeAttacks: []
  groundAttacks: []
  aerialAttacks: []
  standingGrab:
    actionName: 
    totalFrames:
      numFrames: 0
    hitboxActive:
      minFrame:
        numFrames: 0
      maxFrame:
        numFrames: 0
  dashGrab:
    actionName: 
    totalFrames:
      numFrames: 0
    hitboxActive:
      minFrame:
        numFrames: 0
      maxFrame:
        numFrames: 0
  pivotGrab:
    actionName: 
    totalFrames:
      numFrames: 0
    hitboxActive:
      minFrame:
        numFrames: 0
      maxFrame:
        numFrames: 0
  spotDodge:
    actionName: 
    totalFrames:
      numFrames: 0
    intangibility:
      minFrame:
        numFrames: 0
      maxFrame:
        numFrames: 0
  forwardRoll:
    actionName: 
    totalFrames:
      numFrames: 0
    intangibility:
      minFrame:
        numFrames: 0
      maxFrame:
        numFrames: 0
  backRoll:
    actionName: 
    totalFrames:
      numFrames: 0
    intangibility:
      minFrame:
        numFrames: 0
      maxFrame:
        numFrames: 0
  airDodge:
    actionName: 
    totalFrames:
      numFrames: 0
    intangibility:
      minFrame:
        numFrames: 0
      maxFrame:
        numFrames: 0
  upThrow:
    actionName: 
    totalFrames:
      numFrames: 0
    hitboxActive:
      minFrame:
        numFrames: 0
      maxFrame:
        numFrames: 0
    baseDamage: 
    angle: 
    baseKnockBack: 
    knockbackGrowth: 
    bonusShieldDamage: 
    intangibility:
      minFrame:
        numFrames: 0
      maxFrame:
        numFrames: 0
    weightDependent: 0
  downThrow:
    actionName: 
    totalFrames:
      numFrames: 0
    hitboxActive:
      minFrame:
        numFrames: 0
      maxFrame:
        numFrames: 0
    baseDamage: 
    angle: 
    baseKnockBack: 
    knockbackGrowth: 
    bonusShieldDamage: 
    intangibility:
      minFrame:
        numFrames: 0
      maxFrame:
        numFrames: 0
    weightDependent: 0
  forwardThrow:
    actionName: 
    totalFrames:
      numFrames: 0
    hitboxActive:
      minFrame:
        numFrames: 0
      maxFrame:
        numFrames: 0
    baseDamage: 
    angle: 
    baseKnockBack: 
    knockbackGrowth: 
    bonusShieldDamage: 
    intangibility:
      minFrame:
        numFrames: 0
      maxFrame:
        numFrames: 0
    weightDependent: 0
  backThrow:
    actionName: 
    totalFrames:
      numFrames: 0
    hitboxActive:
      minFrame:
        numFrames: 0
      maxFrame:
        numFrames: 0
    baseDamage: 
    angle: 
    baseKnockBack: 
    knockbackGrowth: 
    bonusShieldDamage: 
    intangibility:
      minFrame:
        numFrames: 0
      maxFrame:
        numFrames: 0
    weightDependent: 0
