%YAML 1.1
%TAG !u! tag:unity3d.com,2011:
--- !u!1 &1382899806835907386
GameObject:
  m_ObjectHideFlags: 0
  m_CorrespondingSourceObject: {fileID: 0}
  m_PrefabInstance: {fileID: 0}
  m_PrefabAsset: {fileID: 0}
  serializedVersion: 6
  m_Component:
  - component: {fileID: 1382899806835907391}
  - component: {fileID: 1382899806835907389}
  - component: {fileID: 6744078035270735563}
  m_Layer: 0
  m_Name: SmashSocketManager
  m_TagString: MainCamera
  m_Icon: {fileID: 0}
  m_NavMeshLayer: 0
  m_StaticEditorFlags: 0
  m_IsActive: 1
--- !u!4 &1382899806835907391
Transform:
  m_ObjectHideFlags: 0
  m_CorrespondingSourceObject: {fileID: 0}
  m_PrefabInstance: {fileID: 0}
  m_PrefabAsset: {fileID: 0}
  m_GameObject: {fileID: 1382899806835907386}
  m_LocalRotation: {x: 0, y: 0, z: 0, w: 1}
  m_LocalPosition: {x: 0, y: 1, z: -10}
  m_LocalScale: {x: 1, y: 1, z: 1}
  m_Children: []
  m_Father: {fileID: 0}
  m_RootOrder: 0
  m_LocalEulerAnglesHint: {x: 0, y: 0, z: 0}
--- !u!114 &1382899806835907389
MonoBehaviour:
  m_ObjectHideFlags: 0
  m_CorrespondingSourceObject: {fileID: 0}
  m_PrefabInstance: {fileID: 0}
  m_PrefabAsset: {fileID: 0}
  m_GameObject: {fileID: 1382899806835907386}
  m_Enabled: 1
  m_EditorHideFlags: 0
  m_Script: {fileID: 11500000, guid: 57053bf9c7d5045758199066163667a5, type: 3}
  m_Name: 
  m_EditorClassIdentifier: 
  urlProtocol: ws://
  domain: primate-sm4sh-calculator.herokuapp.com
  editorDomain: localhost:3000
  urlSuffix: /socket.io/?EIO=3&transport=websocket
  isHost: 0
  getAllDataInOrder: 0
  autoConnect: 1
  reconnectDelay: 5
  ackExpirationTime: 30
  pingInterval: 25
  pingTimeout: 60
--- !u!114 &6744078035270735563
MonoBehaviour:
  m_ObjectHideFlags: 0
  m_CorrespondingSourceObject: {fileID: 0}
  m_PrefabInstance: {fileID: 0}
  m_PrefabAsset: {fileID: 0}
  m_GameObject: {fileID: 1382899806835907386}
  m_Enabled: 1
  m_EditorHideFlags: 0
  m_Script: {fileID: 11500000, guid: 1d63fbc0afb66d84eba747a6f42e3a31, type: 3}
  m_Name: 
  m_EditorClassIdentifier: 
  onConnectionStatusChanged:
    m_PersistentCalls:
      m_Calls: []
    m_TypeName: SmashSocketManager+BoolAction, Assembly-CSharp, Version=1.0.2.29047,
      Culture=neutral, PublicKeyToken=null
  onMessage:
    m_PersistentCalls:
      m_Calls: []
    m_TypeName: SmashSocketManager+JSONAction, Assembly-CSharp, Version=1.0.2.29047,
      Culture=neutral, PublicKeyToken=null
  onConnectedSocketEvent:
    m_PersistentCalls:
      m_Calls: []
    m_TypeName: SmashSocketManager+JSONAction, Assembly-CSharp, Version=1.0.2.29047,
      Culture=neutral, PublicKeyToken=null
  messageActions: []
  _socketIO: {fileID: 0}
